# Blender v2.67 (sub 0) OBJ File: ''
# www.blender.org
mtllib Bridge.mtl
o Cube_Cube.001
v -0.563746 0.520470 1.721111
v -0.563746 0.520470 -2.455380
v -0.409996 0.520470 -2.455380
v -0.409996 0.520470 1.721111
v -0.563746 0.565018 1.721111
v -0.563746 0.565018 -2.455380
v -0.409996 0.565018 -2.455380
v -0.409996 0.565018 1.721111
v -0.354577 0.520470 1.721111
v -0.354577 0.520470 -2.455380
v -0.200828 0.520470 -2.455380
v -0.200828 0.520470 1.721111
v -0.354577 0.565018 1.721111
v -0.354577 0.565018 -2.455380
v -0.200828 0.565018 -2.455380
v -0.200828 0.565018 1.721111
v -0.138601 0.520588 1.721112
v -0.138602 0.520588 -2.455380
v 0.013999 0.501825 -2.455380
v 0.013999 0.501825 1.721112
v -0.133165 0.564803 1.721112
v -0.133165 0.564803 -2.455380
v 0.019435 0.546040 -2.455380
v 0.019435 0.546040 1.721112
v 0.073485 0.486325 1.721112
v 0.073485 0.486325 -2.455380
v 0.225448 0.462955 -2.455380
v 0.225448 0.462955 1.721112
v 0.080256 0.530355 1.721112
v 0.080256 0.530355 -2.455380
v 0.232219 0.506986 -2.455380
v 0.232219 0.506986 1.721112
v 0.281650 0.456119 1.721112
v 0.281649 0.456119 -2.455380
v 0.432767 0.427789 -2.455380
v 0.432767 0.427789 1.721112
v 0.289858 0.499904 1.721112
v 0.289858 0.499904 -2.455380
v 0.440975 0.471574 -2.455380
v 0.440975 0.471574 1.721112
v 0.489864 0.424021 1.721112
v 0.489864 0.424021 -2.455380
v 0.640724 0.394355 -2.455380
v 0.640724 0.394355 1.721112
v 0.498459 0.467731 1.721112
v 0.498459 0.467732 -2.455380
v 0.649320 0.438066 -2.455380
v 0.649320 0.438066 1.721112
v 0.701980 0.384483 1.721112
v 0.701979 0.384483 -2.455380
v 0.851948 0.350595 -2.455380
v 0.851948 0.350595 1.721112
v 0.711798 0.427935 1.721112
v 0.711798 0.427935 -2.455380
v 0.861767 0.394047 -2.455380
v 0.861767 0.394047 1.721112
v 0.914419 0.338698 1.721112
v 0.914419 0.338698 -2.455380
v 1.065417 0.309742 -2.455380
v 1.065417 0.309742 1.721112
v 0.922809 0.382448 1.721112
v 0.922809 0.382448 -2.455380
v 1.073807 0.353492 -2.455380
v 1.073807 0.353492 1.721112
v 1.111994 0.297589 1.721112
v 1.111994 0.297589 -2.455380
v 1.262370 0.265561 -2.455380
v 1.262371 0.265561 1.721112
v 1.121274 0.341159 1.721112
v 1.121274 0.341159 -2.455380
v 1.271650 0.309131 -2.455380
v 1.271650 0.309131 1.721112
v 1.320294 0.257626 1.721112
v 1.320294 0.257626 -2.455380
v 1.471440 0.229455 -2.455380
v 1.471440 0.229455 1.721112
v 1.328456 0.301420 1.721112
v 1.328456 0.301420 -2.455380
v 1.479603 0.273248 -2.455380
v 1.479603 0.273248 1.721112
v 1.532330 0.218989 1.721112
v 1.532330 0.218989 -2.455380
v 1.682250 0.184891 -2.455380
v 1.682250 0.184891 1.721112
v 1.542209 0.262427 1.721112
v 1.542209 0.262427 -2.455380
v 1.692130 0.228330 -2.455380
v 1.692130 0.228330 1.721112
v 1.744467 0.180851 1.721112
v 1.744467 0.180851 -2.455380
v 1.888866 0.128049 -2.455380
v 1.888866 0.128049 1.721112
v 1.759767 0.222690 1.721112
v 1.759766 0.222690 -2.455380
v 1.904165 0.169888 -2.455380
v 1.904165 0.169888 1.721112
v -3.073695 0.520470 1.721111
v -3.073695 0.520470 -2.455380
v -2.919946 0.520470 -2.455380
v -2.919946 0.520470 1.721111
v -3.073695 0.565018 1.721111
v -3.073695 0.565018 -2.455380
v -2.919946 0.565018 -2.455380
v -2.919946 0.565018 1.721111
v -2.864527 0.520470 1.721111
v -2.864527 0.520470 -2.455380
v -2.710777 0.520470 -2.455380
v -2.710777 0.520470 1.721111
v -2.864527 0.565018 1.721111
v -2.864527 0.565018 -2.455380
v -2.710777 0.565018 -2.455380
v -2.710777 0.565018 1.721111
v -2.651090 0.520470 1.721111
v -2.651090 0.520470 -2.455380
v -2.497340 0.520470 -2.455380
v -2.497340 0.520470 1.721111
v -2.651090 0.565018 1.721111
v -2.651090 0.565018 -2.455380
v -2.497340 0.565018 -2.455380
v -2.497340 0.565018 1.721111
v -2.437653 0.520470 1.721111
v -2.437653 0.520470 -2.455380
v -2.283903 0.520470 -2.455380
v -2.283903 0.520470 1.721111
v -2.437653 0.565018 1.721111
v -2.437653 0.565018 -2.455380
v -2.283903 0.565018 -2.455380
v -2.283903 0.565018 1.721111
v -2.228303 0.520470 1.721111
v -2.228303 0.520470 -2.455380
v -2.074554 0.520470 -2.455380
v -2.074554 0.520470 1.721111
v -2.228303 0.565018 1.721111
v -2.228303 0.565018 -2.455380
v -2.074554 0.565018 -2.455380
v -2.074554 0.565018 1.721111
v -2.019135 0.520470 1.721111
v -2.019135 0.520470 -2.455380
v -1.865386 0.520470 -2.455380
v -1.865386 0.520470 1.721111
v -2.019135 0.565018 1.721111
v -2.019135 0.565018 -2.455380
v -1.865386 0.565018 -2.455380
v -1.865386 0.565018 1.721111
v -1.805698 0.520470 1.721111
v -1.805698 0.520470 -2.455380
v -1.651949 0.520470 -2.455380
v -1.651949 0.520470 1.721111
v -1.805698 0.565018 1.721111
v -1.805698 0.565018 -2.455380
v -1.651949 0.565018 -2.455380
v -1.651949 0.565018 1.721111
v -1.592261 0.520470 1.721111
v -1.592261 0.520470 -2.455380
v -1.438512 0.520470 -2.455380
v -1.438512 0.520470 1.721111
v -1.592261 0.565018 1.721111
v -1.592261 0.565018 -2.455380
v -1.438512 0.565018 -2.455380
v -1.438512 0.565018 1.721111
v -1.393361 0.520470 1.721111
v -1.393361 0.520470 -2.455380
v -1.239612 0.520470 -2.455380
v -1.239612 0.520470 1.721111
v -1.393361 0.565018 1.721111
v -1.393361 0.565018 -2.455380
v -1.239612 0.565018 -2.455380
v -1.239612 0.565018 1.721111
v -1.184193 0.520470 1.721111
v -1.184193 0.520470 -2.455380
v -1.030443 0.520470 -2.455380
v -1.030443 0.520470 1.721111
v -1.184193 0.565018 1.721111
v -1.184193 0.565018 -2.455380
v -1.030443 0.565018 -2.455380
v -1.030443 0.565018 1.721111
v -0.970756 0.520470 1.721111
v -0.970756 0.520470 -2.455380
v -0.817006 0.520470 -2.455380
v -0.817006 0.520470 1.721111
v -0.970756 0.565018 1.721111
v -0.970756 0.565018 -2.455380
v -0.817006 0.565018 -2.455380
v -0.817006 0.565018 1.721111
v -0.757319 0.520470 1.721111
v -0.757319 0.520470 -2.455380
v -0.603569 0.520470 -2.455380
v -0.603569 0.520470 1.721111
v -0.757319 0.565018 1.721111
v -0.757319 0.565018 -2.455380
v -0.603569 0.565018 -2.455380
v -0.603569 0.565018 1.721111
v -5.584395 0.136555 1.721112
v -5.584394 0.136555 -2.455380
v -5.439550 0.188121 -2.455380
v -5.439551 0.188121 1.721112
v -5.599336 0.178523 1.721112
v -5.599336 0.178523 -2.455380
v -5.454492 0.230089 -2.455380
v -5.454492 0.230089 1.721112
v -5.376999 0.202659 1.721112
v -5.376999 0.202659 -2.455380
v -5.230256 0.248546 -2.455380
v -5.230257 0.248546 1.721112
v -5.390294 0.245177 1.721112
v -5.390294 0.245177 -2.455380
v -5.243552 0.291064 -2.455380
v -5.243552 0.291064 1.721112
v -5.167924 0.256156 1.721112
v -5.167924 0.256156 -2.455380
v -5.017101 0.286015 -2.455380
v -5.017101 0.286015 1.721112
v -5.176575 0.299856 1.721112
v -5.176575 0.299856 -2.455380
v -5.025753 0.329715 -2.455380
v -5.025753 0.329715 1.721112
v -4.953238 0.298172 1.721112
v -4.953237 0.298172 -2.455380
v -4.803480 0.332980 -2.455380
v -4.803480 0.332980 1.721112
v -4.963323 0.341563 1.721112
v -4.963323 0.341563 -2.455380
v -4.813565 0.376372 -2.455380
v -4.813565 0.376372 1.721112
v -4.745736 0.335339 1.721112
v -4.745736 0.335339 -2.455380
v -4.594440 0.362700 -2.455380
v -4.594441 0.362700 1.721112
v -4.753664 0.379176 1.721112
v -4.753664 0.379176 -2.455380
v -4.602368 0.406537 -2.455380
v -4.602368 0.406537 1.721112
v -4.536391 0.368652 1.721112
v -4.536391 0.368652 -2.455380
v -4.385232 0.396760 -2.455380
v -4.385232 0.396760 1.721112
v -4.544535 0.412449 1.721112
v -4.544535 0.412449 -2.455380
v -4.393376 0.440557 -2.455380
v -4.393376 0.440557 1.721112
v -4.323068 0.410428 1.721112
v -4.323068 0.410428 -2.455380
v -4.171821 0.438056 -2.455380
v -4.171821 0.438056 1.721112
v -4.331073 0.454251 1.721112
v -4.331072 0.454251 -2.455380
v -4.179826 0.481878 -2.455380
v -4.179826 0.481878 1.721112
v -4.109191 0.444194 1.721112
v -4.109191 0.444194 -2.455380
v -3.958291 0.473659 -2.455380
v -3.958291 0.473659 1.721112
v -4.117728 0.487916 1.721112
v -4.117728 0.487916 -2.455380
v -3.966828 0.517381 -2.455380
v -3.966829 0.517381 1.721112
v -3.910609 0.485599 1.721112
v -3.910609 0.485599 -2.455380
v -3.759457 0.513740 -2.455380
v -3.759457 0.513740 1.721112
v -3.918763 0.529395 1.721112
v -3.918762 0.529395 -2.455380
v -3.767610 0.557535 -2.455380
v -3.767610 0.557535 1.721112
v -3.706816 0.520470 1.721111
v -3.706816 0.520470 -2.455380
v -3.553067 0.520470 -2.455380
v -3.553067 0.520470 1.721111
v -3.706816 0.565018 1.721111
v -3.706816 0.565018 -2.455380
v -3.553067 0.565018 -2.455380
v -3.553067 0.565018 1.721111
v -3.493379 0.520470 1.721111
v -3.493379 0.520470 -2.455380
v -3.339629 0.520470 -2.455380
v -3.339629 0.520470 1.721111
v -3.493379 0.565018 1.721111
v -3.493379 0.565018 -2.455380
v -3.339629 0.565018 -2.455380
v -3.339629 0.565018 1.721111
v -3.279942 0.520470 1.721111
v -3.279942 0.520470 -2.455380
v -3.126192 0.520470 -2.455380
v -3.126192 0.520470 1.721111
v -3.279942 0.565018 1.721111
v -3.279942 0.565018 -2.455380
v -3.126192 0.565018 -2.455380
v -3.126192 0.565018 1.721111
v -0.160295 0.475307 -0.242692
v -3.768544 0.475307 -0.242693
v -3.768544 0.475307 -0.491577
v -0.160295 0.475307 -0.491576
v -0.160295 0.519855 -0.242692
v -3.768544 0.519855 -0.242693
v -3.768544 0.519855 -0.491577
v -0.160295 0.519855 -0.491576
v -3.762164 0.474589 -0.242692
v -5.497097 0.139807 -0.242693
v -5.497097 0.139807 -0.491577
v -3.762164 0.474589 -0.491576
v -3.770605 0.518330 -0.242692
v -5.505538 0.183548 -0.242693
v -5.505538 0.183548 -0.491577
v -3.770605 0.518330 -0.491576
v 1.800046 0.116303 -0.242692
v -0.148068 0.486939 -0.242693
v -0.148068 0.486939 -0.491577
v 1.800046 0.116303 -0.491576
v 1.808181 0.160102 -0.242692
v -0.139933 0.530737 -0.242693
v -0.139933 0.530737 -0.491577
v 1.808181 0.160102 -0.491576
v 0.728680 0.369403 -0.242692
v 0.720545 0.325604 -0.242692
v 0.728680 0.369403 -0.491577
v 0.720545 0.325604 -0.491577
v -3.762164 0.474589 1.266683
v -5.497097 0.139807 1.266683
v -5.497097 0.139807 1.515567
v -3.762164 0.474589 1.515567
v -3.762164 0.474589 -1.988210
v -5.497097 0.139807 -1.988211
v -5.497097 0.139807 -2.237095
v -3.762164 0.474589 -2.237094
v -0.160295 0.475307 1.266683
v -3.768544 0.475307 1.266683
v -3.768544 0.475307 1.515567
v -0.160295 0.475307 1.515567
v 1.800046 0.116303 1.266683
v -0.148068 0.486939 1.266683
v -0.148068 0.486939 1.515567
v 1.800046 0.116303 1.515567
v -3.770605 0.518330 1.266683
v -5.505538 0.183548 1.266683
v -5.505538 0.183548 1.515567
v -3.770605 0.518330 1.515567
v 1.808181 0.160102 1.266683
v -0.139933 0.530737 1.266683
v -0.139933 0.530737 1.515567
v 1.808181 0.160102 1.515567
v 0.720545 0.325604 1.266683
v 0.728680 0.369403 1.266683
v 0.720545 0.325604 1.515567
v 0.728680 0.369403 1.515567
v -0.160295 0.519855 1.266683
v -3.768544 0.519855 1.266683
v -3.768544 0.519855 1.515567
v -0.160295 0.519855 1.515567
v -0.160295 0.475307 -2.237094
v -3.768544 0.475307 -2.237095
v -3.768544 0.475307 -1.988211
v -0.160295 0.475307 -1.988211
v 1.800046 0.116303 -2.237094
v -0.148068 0.486939 -2.237095
v -0.148068 0.486939 -1.988211
v 1.800046 0.116303 -1.988210
v -3.770605 0.518330 -2.237094
v -5.505538 0.183548 -2.237095
v -5.505538 0.183548 -1.988211
v -3.770605 0.518330 -1.988210
v 1.808181 0.160102 -2.237094
v -0.139933 0.530737 -2.237095
v -0.139933 0.530737 -1.988211
v 1.808181 0.160102 -1.988210
v 0.720545 0.325604 -2.237095
v 0.728680 0.369403 -2.237095
v 0.720545 0.325604 -1.988211
v 0.728680 0.369403 -1.988211
v -0.160295 0.519855 -2.237094
v -3.768544 0.519855 -2.237095
v -3.768544 0.519855 -1.988211
v -0.160295 0.519855 -1.988211
v 1.601731 0.837259 -2.403655
v 1.601731 0.127151 -2.403655
v -0.204460 0.497469 -2.403655
v -0.204460 1.085763 -2.403655
v -0.172933 0.497469 -2.395207
v -0.172933 1.085763 -2.395207
v -0.149853 0.497469 -2.372127
v -0.149853 1.085763 -2.372127
v -0.141405 0.497469 -2.340599
v -0.141405 1.085763 -2.340599
v -0.149853 0.497469 -2.309072
v -0.149853 1.085763 -2.309072
v -0.172933 0.497469 -2.285991
v -0.172933 1.085763 -2.285991
v -0.204460 0.497469 -2.277544
v -0.204460 1.085763 -2.277544
v -0.235988 0.497469 -2.285991
v -0.235988 1.085763 -2.285991
v -0.259068 0.497469 -2.309072
v -0.259068 1.085763 -2.309072
v -0.267516 0.497469 -2.340599
v -0.267516 1.085763 -2.340599
v -0.259068 0.497469 -2.372127
v -0.259068 1.085763 -2.372127
v -0.235988 0.497469 -2.395207
v -0.235988 1.085763 -2.395207
v 1.633259 0.127151 -2.395207
v 1.633259 0.837259 -2.395207
v 1.656339 0.127151 -2.372127
v 1.656339 0.837259 -2.372127
v 1.664787 0.127151 -2.340599
v 1.664787 0.837259 -2.340599
v 1.656339 0.127151 -2.309072
v 1.656339 0.837259 -2.309072
v 1.633259 0.127151 -2.285991
v 1.633259 0.837259 -2.285991
v 1.601731 0.127151 -2.277544
v 1.601731 0.837259 -2.277544
v 1.570203 0.127151 -2.285991
v 1.570203 0.837259 -2.285991
v 1.547123 0.127151 -2.309072
v 1.547123 0.837259 -2.309072
v 1.538676 0.127151 -2.340599
v 1.538676 0.837259 -2.340599
v 1.547123 0.127151 -2.372127
v 1.547123 0.837259 -2.372127
v 1.570203 0.127151 -2.395207
v 1.570203 0.837259 -2.395207
v -3.644040 0.497469 -2.403655
v -3.644040 1.085763 -2.403655
v -3.612512 0.497469 -2.395207
v -3.612512 1.085763 -2.395207
v -3.589432 0.497469 -2.372127
v -3.589432 1.085763 -2.372127
v -3.580984 0.497469 -2.340599
v -3.580984 1.085763 -2.340599
v -3.589432 0.497469 -2.309072
v -3.589432 1.085763 -2.309072
v -3.612512 0.497469 -2.285991
v -3.612512 1.085763 -2.285991
v -3.644040 0.497469 -2.277544
v -3.644040 1.085763 -2.277544
v -3.675568 0.497469 -2.285991
v -3.675568 1.085763 -2.285991
v -3.698647 0.497469 -2.309072
v -3.698647 1.085763 -2.309072
v -3.707095 0.497469 -2.340599
v -3.707095 1.085763 -2.340599
v -3.698647 0.497469 -2.372127
v -3.698647 1.085763 -2.372127
v -3.675568 0.497469 -2.395207
v -3.675568 1.085763 -2.395207
v -5.468516 0.758604 -2.403655
v -5.468516 0.127151 -2.403655
v -5.436988 0.127151 -2.395207
v -5.436988 0.758604 -2.395207
v -5.413908 0.127151 -2.372127
v -5.413908 0.758604 -2.372127
v -5.405460 0.127151 -2.340599
v -5.405460 0.758604 -2.340599
v -5.413908 0.127151 -2.309072
v -5.413908 0.758604 -2.309072
v -5.436988 0.127151 -2.285991
v -5.436988 0.758604 -2.285991
v -5.468516 0.127151 -2.277544
v -5.468516 0.758604 -2.277544
v -5.500044 0.127151 -2.285991
v -5.500044 0.758604 -2.285991
v -5.523124 0.127151 -2.309072
v -5.523124 0.758604 -2.309072
v -5.531572 0.127151 -2.340599
v -5.531572 0.758604 -2.340599
v -5.523124 0.127151 -2.372127
v -5.523124 0.758604 -2.372127
v -5.500044 0.127151 -2.395207
v -5.500044 0.758604 -2.395207
v -0.249108 1.015380 -2.377608
v 1.618041 0.695085 -2.377608
v -0.254730 0.982226 -2.367520
v 1.612418 0.661931 -2.367520
v -0.257060 0.968494 -2.343165
v 1.610089 0.648199 -2.343165
v -0.254730 0.982226 -2.318811
v 1.612418 0.661931 -2.318811
v -0.249108 1.015380 -2.308723
v 1.618041 0.695085 -2.308723
v -0.243484 1.048533 -2.318811
v 1.623664 0.728238 -2.318811
v -0.241155 1.062266 -2.343165
v 1.625994 0.741971 -2.343165
v -0.243484 1.048533 -2.367520
v 1.623664 0.728238 -2.367520
v -3.670213 1.007329 -2.373367
v -0.235915 1.007329 -2.373367
v -3.670211 0.977838 -2.364522
v -0.235915 0.977838 -2.364522
v -3.670211 0.965622 -2.343165
v -0.235915 0.965622 -2.343165
v -3.670211 0.977838 -2.321809
v -0.235915 0.977838 -2.321809
v -3.670213 1.007329 -2.312963
v -0.235915 1.007329 -2.312963
v -3.670213 1.036821 -2.321809
v -0.235915 1.036821 -2.321809
v -3.670213 1.049036 -2.343165
v -0.235915 1.049036 -2.343165
v -3.670213 1.036821 -2.364522
v -0.235915 1.036821 -2.364522
v -0.249108 0.764528 -2.377608
v 1.618041 0.444233 -2.377608
v -0.254730 0.731374 -2.367520
v 1.612418 0.411079 -2.367520
v -0.257060 0.717642 -2.343165
v 1.610089 0.397347 -2.343165
v -0.254730 0.731374 -2.318811
v 1.612418 0.411079 -2.318811
v -0.249108 0.764528 -2.308723
v 1.618041 0.444233 -2.308723
v -0.243484 0.797682 -2.318811
v 1.623664 0.477386 -2.318811
v -0.241155 0.811414 -2.343165
v 1.625994 0.491119 -2.343165
v -0.243484 0.797682 -2.367520
v 1.623664 0.477386 -2.367520
v -3.670213 0.750773 -2.373367
v -0.235915 0.750773 -2.373367
v -3.670211 0.721282 -2.364522
v -0.235915 0.721282 -2.364522
v -3.670211 0.709066 -2.343165
v -0.235915 0.709066 -2.343165
v -3.670211 0.721282 -2.321809
v -0.235915 0.721282 -2.321809
v -3.670213 0.750773 -2.312963
v -0.235915 0.750773 -2.312963
v -3.670213 0.780265 -2.321809
v -0.235915 0.780265 -2.321809
v -3.670213 0.792480 -2.343165
v -0.235915 0.792480 -2.343165
v -3.670213 0.780265 -2.364522
v -0.235915 0.780265 -2.364522
v -5.478683 0.616321 -2.377608
v -3.624467 1.005246 -2.377608
v -5.471854 0.583398 -2.367520
v -3.617639 0.972322 -2.367520
v -5.469027 0.569760 -2.343165
v -3.614810 0.958684 -2.343165
v -5.471854 0.583398 -2.318811
v -3.617639 0.972322 -2.318811
v -5.478683 0.616321 -2.308723
v -3.624467 1.005246 -2.308723
v -5.485511 0.649245 -2.318811
v -3.631295 1.038170 -2.318811
v -5.488340 0.662883 -2.343165
v -3.634124 1.051807 -2.343165
v -5.485511 0.649245 -2.367520
v -3.631295 1.038170 -2.367520
v -5.472743 0.368561 -2.377608
v -3.618527 0.757486 -2.377608
v -5.465914 0.335637 -2.367520
v -3.611699 0.724562 -2.367520
v -5.463085 0.322000 -2.343165
v -3.608870 0.710924 -2.343165
v -5.465914 0.335637 -2.318811
v -3.611699 0.724562 -2.318811
v -5.472743 0.368561 -2.308723
v -3.618527 0.757486 -2.308723
v -5.479571 0.401485 -2.318811
v -3.625355 0.790410 -2.318811
v -5.482399 0.415122 -2.343165
v -3.628183 0.804047 -2.343165
v -5.479571 0.401485 -2.367520
v -3.625355 0.790410 -2.367520
v 1.601731 0.837259 1.529327
v 1.601731 0.127151 1.529327
v -0.204460 0.497469 1.529327
v -0.204460 1.085763 1.529327
v -0.172933 0.497469 1.537775
v -0.172933 1.085763 1.537775
v -0.149853 0.497469 1.560855
v -0.149853 1.085763 1.560855
v -0.141405 0.497469 1.592383
v -0.141405 1.085763 1.592383
v -0.149853 0.497469 1.623911
v -0.149853 1.085763 1.623911
v -0.172933 0.497469 1.646991
v -0.172933 1.085763 1.646991
v -0.204460 0.497469 1.655438
v -0.204460 1.085763 1.655438
v -0.235988 0.497469 1.646991
v -0.235988 1.085763 1.646991
v -0.259068 0.497469 1.623911
v -0.259068 1.085763 1.623911
v -0.267516 0.497469 1.592383
v -0.267516 1.085763 1.592383
v -0.259068 0.497469 1.560855
v -0.259068 1.085763 1.560855
v -0.235988 0.497469 1.537775
v -0.235988 1.085763 1.537775
v 1.633259 0.127151 1.537775
v 1.633259 0.837259 1.537775
v 1.656339 0.127151 1.560855
v 1.656339 0.837259 1.560855
v 1.664787 0.127151 1.592383
v 1.664787 0.837259 1.592383
v 1.656339 0.127151 1.623911
v 1.656339 0.837259 1.623911
v 1.633259 0.127151 1.646991
v 1.633259 0.837259 1.646991
v 1.601731 0.127151 1.655438
v 1.601731 0.837259 1.655438
v 1.570203 0.127151 1.646991
v 1.570203 0.837259 1.646991
v 1.547123 0.127151 1.623911
v 1.547123 0.837259 1.623911
v 1.538676 0.127151 1.592383
v 1.538676 0.837259 1.592383
v 1.547123 0.127151 1.560855
v 1.547123 0.837259 1.560855
v 1.570203 0.127151 1.537775
v 1.570203 0.837259 1.537775
v -3.644040 0.497469 1.529327
v -3.644040 1.085763 1.529327
v -3.612512 0.497469 1.537775
v -3.612512 1.085763 1.537775
v -3.589432 0.497469 1.560855
v -3.589432 1.085763 1.560855
v -3.580984 0.497469 1.592383
v -3.580984 1.085763 1.592383
v -3.589432 0.497469 1.623911
v -3.589432 1.085763 1.623911
v -3.612512 0.497469 1.646991
v -3.612512 1.085763 1.646991
v -3.644040 0.497469 1.655438
v -3.644040 1.085763 1.655438
v -3.675568 0.497469 1.646991
v -3.675568 1.085763 1.646991
v -3.698647 0.497469 1.623911
v -3.698647 1.085763 1.623911
v -3.707095 0.497469 1.592383
v -3.707095 1.085763 1.592383
v -3.698647 0.497469 1.560855
v -3.698647 1.085763 1.560855
v -3.675568 0.497469 1.537775
v -3.675568 1.085763 1.537775
v -5.468516 0.758604 1.529327
v -5.468516 0.127151 1.529327
v -5.436988 0.127151 1.537775
v -5.436988 0.758604 1.537775
v -5.413908 0.127151 1.560855
v -5.413908 0.758604 1.560855
v -5.405460 0.127151 1.592383
v -5.405460 0.758604 1.592383
v -5.413908 0.127151 1.623911
v -5.413908 0.758604 1.623911
v -5.436988 0.127151 1.646991
v -5.436988 0.758604 1.646991
v -5.468516 0.127151 1.655438
v -5.468516 0.758604 1.655438
v -5.500044 0.127151 1.646991
v -5.500044 0.758604 1.646991
v -5.523124 0.127151 1.623911
v -5.523124 0.758604 1.623911
v -5.531572 0.127151 1.592383
v -5.531572 0.758604 1.592383
v -5.523124 0.127151 1.560855
v -5.523124 0.758604 1.560855
v -5.500044 0.127151 1.537775
v -5.500044 0.758604 1.537775
v -0.249108 1.015380 1.555374
v 1.618041 0.695085 1.555374
v -0.254730 0.982226 1.565462
v 1.612418 0.661931 1.565462
v -0.257060 0.968494 1.589817
v 1.610089 0.648199 1.589817
v -0.254730 0.982226 1.614171
v 1.612418 0.661931 1.614171
v -0.249108 1.015380 1.624259
v 1.618041 0.695085 1.624259
v -0.243484 1.048533 1.614171
v 1.623664 0.728238 1.614171
v -0.241155 1.062266 1.589817
v 1.625994 0.741971 1.589817
v -0.243484 1.048533 1.565462
v 1.623664 0.728238 1.565462
v -3.670213 1.007329 1.559615
v -0.235915 1.007329 1.559615
v -3.670211 0.977838 1.568461
v -0.235915 0.977838 1.568461
v -3.670211 0.965622 1.589817
v -0.235915 0.965622 1.589817
v -3.670211 0.977838 1.611173
v -0.235915 0.977838 1.611173
v -3.670213 1.007329 1.620019
v -0.235915 1.007329 1.620019
v -3.670213 1.036821 1.611173
v -0.235915 1.036821 1.611173
v -3.670213 1.049036 1.589817
v -0.235915 1.049036 1.589817
v -3.670213 1.036821 1.568461
v -0.235915 1.036821 1.568461
v -0.249108 0.764528 1.555374
v 1.618041 0.444233 1.555374
v -0.254730 0.731374 1.565462
v 1.612418 0.411079 1.565462
v -0.257060 0.717642 1.589817
v 1.610089 0.397347 1.589817
v -0.254730 0.731374 1.614171
v 1.612418 0.411079 1.614171
v -0.249108 0.764528 1.624259
v 1.618041 0.444233 1.624259
v -0.243484 0.797682 1.614171
v 1.623664 0.477386 1.614171
v -0.241155 0.811414 1.589817
v 1.625994 0.491119 1.589817
v -0.243484 0.797682 1.565462
v 1.623664 0.477386 1.565462
v -3.670213 0.750773 1.559615
v -0.235915 0.750773 1.559615
v -3.670211 0.721282 1.568461
v -0.235915 0.721282 1.568461
v -3.670211 0.709066 1.589817
v -0.235915 0.709066 1.589817
v -3.670211 0.721282 1.611173
v -0.235915 0.721282 1.611173
v -3.670213 0.750773 1.620019
v -0.235915 0.750773 1.620019
v -3.670213 0.780265 1.611173
v -0.235915 0.780265 1.611173
v -3.670213 0.792480 1.589817
v -0.235915 0.792480 1.589817
v -3.670213 0.780265 1.568461
v -0.235915 0.780265 1.568461
v -5.478683 0.616321 1.555374
v -3.624467 1.005246 1.555374
v -5.471854 0.583398 1.565462
v -3.617639 0.972322 1.565462
v -5.469027 0.569760 1.589817
v -3.614810 0.958684 1.589817
v -5.471854 0.583398 1.614171
v -3.617639 0.972322 1.614171
v -5.478683 0.616321 1.624259
v -3.624467 1.005246 1.624259
v -5.485511 0.649245 1.614171
v -3.631295 1.038170 1.614171
v -5.488340 0.662883 1.589817
v -3.634124 1.051807 1.589817
v -5.485511 0.649245 1.565462
v -3.631295 1.038170 1.565462
v -5.472743 0.368561 1.555374
v -3.618527 0.757486 1.555374
v -5.465914 0.335637 1.565462
v -3.611699 0.724562 1.565462
v -5.463085 0.322000 1.589817
v -3.608870 0.710924 1.589817
v -5.465914 0.335637 1.614171
v -3.611699 0.724562 1.614171
v -5.472743 0.368561 1.624259
v -3.618527 0.757486 1.624259
v -5.479571 0.401485 1.614171
v -3.625355 0.790410 1.614171
v -5.482399 0.415122 1.589817
v -3.628183 0.804047 1.589817
v -5.479571 0.401485 1.565462
v -3.625355 0.790410 1.565462
vt 0.002077 0.002077
vt 0.997923 0.002077
vt 0.997923 0.997923
vt 0.002077 0.997923
vt 0.500000 0.997923
vt 0.748961 0.931214
vt 0.931214 0.748961
vt 0.997923 0.500000
vt 0.931214 0.251039
vt 0.748961 0.068786
vt 0.500000 0.002077
vt 0.251039 0.068786
vt 0.068786 0.251038
vt 0.002077 0.500000
vt 0.068786 0.748961
vt 0.251038 0.931214
vt 0.852085 0.852085
vt 0.852085 0.147915
vt 0.147915 0.147915
vt 0.147915 0.852085
usemtl Material.001
s off
f 5/1 6/2 2/3 1/4
f 6/1 7/2 3/3 2/4
f 7/1 8/2 4/3 3/4
f 8/1 5/2 1/3 4/4
f 1/1 2/2 3/3 4/4
f 8/1 7/2 6/3 5/4
f 13/1 14/2 10/3 9/4
f 14/1 15/2 11/3 10/4
f 15/1 16/2 12/3 11/4
f 16/1 13/2 9/3 12/4
f 9/1 10/2 11/3 12/4
f 16/1 15/2 14/3 13/4
f 21/1 22/2 18/3 17/4
f 22/1 23/2 19/3 18/4
f 23/1 24/2 20/3 19/4
f 24/1 21/2 17/3 20/4
f 17/1 18/2 19/3 20/4
f 24/1 23/2 22/3 21/4
f 29/1 30/2 26/3 25/4
f 30/1 31/2 27/3 26/4
f 31/1 32/2 28/3 27/4
f 32/1 29/2 25/3 28/4
f 25/1 26/2 27/3 28/4
f 32/1 31/2 30/3 29/4
f 37/1 38/2 34/3 33/4
f 38/1 39/2 35/3 34/4
f 39/1 40/2 36/3 35/4
f 40/1 37/2 33/3 36/4
f 33/1 34/2 35/3 36/4
f 40/1 39/2 38/3 37/4
f 45/1 46/2 42/3 41/4
f 46/1 47/2 43/3 42/4
f 47/1 48/2 44/3 43/4
f 48/1 45/2 41/3 44/4
f 41/1 42/2 43/3 44/4
f 48/1 47/2 46/3 45/4
f 53/1 54/2 50/3 49/4
f 54/1 55/2 51/3 50/4
f 55/1 56/2 52/3 51/4
f 56/1 53/2 49/3 52/4
f 49/1 50/2 51/3 52/4
f 56/1 55/2 54/3 53/4
f 61/1 62/2 58/3 57/4
f 62/1 63/2 59/3 58/4
f 63/1 64/2 60/3 59/4
f 64/1 61/2 57/3 60/4
f 57/1 58/2 59/3 60/4
f 64/1 63/2 62/3 61/4
f 69/1 70/2 66/3 65/4
f 70/1 71/2 67/3 66/4
f 71/1 72/2 68/3 67/4
f 72/1 69/2 65/3 68/4
f 65/1 66/2 67/3 68/4
f 72/1 71/2 70/3 69/4
f 77/1 78/2 74/3 73/4
f 78/1 79/2 75/3 74/4
f 79/1 80/2 76/3 75/4
f 80/1 77/2 73/3 76/4
f 73/1 74/2 75/3 76/4
f 80/1 79/2 78/3 77/4
f 85/1 86/2 82/3 81/4
f 86/1 87/2 83/3 82/4
f 87/1 88/2 84/3 83/4
f 88/1 85/2 81/3 84/4
f 81/1 82/2 83/3 84/4
f 88/1 87/2 86/3 85/4
f 93/1 94/2 90/3 89/4
f 94/1 95/2 91/3 90/4
f 95/1 96/2 92/3 91/4
f 96/1 93/2 89/3 92/4
f 89/1 90/2 91/3 92/4
f 96/1 95/2 94/3 93/4
f 101/1 102/2 98/3 97/4
f 102/1 103/2 99/3 98/4
f 103/1 104/2 100/3 99/4
f 104/1 101/2 97/3 100/4
f 97/1 98/2 99/3 100/4
f 104/1 103/2 102/3 101/4
f 109/1 110/2 106/3 105/4
f 110/1 111/2 107/3 106/4
f 111/1 112/2 108/3 107/4
f 112/1 109/2 105/3 108/4
f 105/1 106/2 107/3 108/4
f 112/1 111/2 110/3 109/4
f 117/1 118/2 114/3 113/4
f 118/1 119/2 115/3 114/4
f 119/1 120/2 116/3 115/4
f 120/1 117/2 113/3 116/4
f 113/1 114/2 115/3 116/4
f 120/1 119/2 118/3 117/4
f 125/1 126/2 122/3 121/4
f 126/1 127/2 123/3 122/4
f 127/1 128/2 124/3 123/4
f 128/1 125/2 121/3 124/4
f 121/1 122/2 123/3 124/4
f 128/1 127/2 126/3 125/4
f 133/1 134/2 130/3 129/4
f 134/1 135/2 131/3 130/4
f 135/1 136/2 132/3 131/4
f 136/1 133/2 129/3 132/4
f 129/1 130/2 131/3 132/4
f 136/1 135/2 134/3 133/4
f 141/1 142/2 138/3 137/4
f 142/1 143/2 139/3 138/4
f 143/1 144/2 140/3 139/4
f 144/1 141/2 137/3 140/4
f 137/1 138/2 139/3 140/4
f 144/1 143/2 142/3 141/4
f 149/1 150/2 146/3 145/4
f 150/1 151/2 147/3 146/4
f 151/1 152/2 148/3 147/4
f 152/1 149/2 145/3 148/4
f 145/1 146/2 147/3 148/4
f 152/1 151/2 150/3 149/4
f 157/1 158/2 154/3 153/4
f 158/1 159/2 155/3 154/4
f 159/1 160/2 156/3 155/4
f 160/1 157/2 153/3 156/4
f 153/1 154/2 155/3 156/4
f 160/1 159/2 158/3 157/4
f 165/1 166/2 162/3 161/4
f 166/1 167/2 163/3 162/4
f 167/1 168/2 164/3 163/4
f 168/1 165/2 161/3 164/4
f 161/1 162/2 163/3 164/4
f 168/1 167/2 166/3 165/4
f 173/1 174/2 170/3 169/4
f 174/1 175/2 171/3 170/4
f 175/1 176/2 172/3 171/4
f 176/1 173/2 169/3 172/4
f 169/1 170/2 171/3 172/4
f 176/1 175/2 174/3 173/4
f 181/1 182/2 178/3 177/4
f 182/1 183/2 179/3 178/4
f 183/1 184/2 180/3 179/4
f 184/1 181/2 177/3 180/4
f 177/1 178/2 179/3 180/4
f 184/1 183/2 182/3 181/4
f 189/1 190/2 186/3 185/4
f 190/1 191/2 187/3 186/4
f 191/1 192/2 188/3 187/4
f 192/1 189/2 185/3 188/4
f 185/1 186/2 187/3 188/4
f 192/1 191/2 190/3 189/4
f 197/1 198/2 194/3 193/4
f 198/1 199/2 195/3 194/4
f 199/1 200/2 196/3 195/4
f 200/1 197/2 193/3 196/4
f 193/1 194/2 195/3 196/4
f 200/1 199/2 198/3 197/4
f 205/1 206/2 202/3 201/4
f 206/1 207/2 203/3 202/4
f 207/1 208/2 204/3 203/4
f 208/1 205/2 201/3 204/4
f 201/1 202/2 203/3 204/4
f 208/1 207/2 206/3 205/4
f 213/1 214/2 210/3 209/4
f 214/1 215/2 211/3 210/4
f 215/1 216/2 212/3 211/4
f 216/1 213/2 209/3 212/4
f 209/1 210/2 211/3 212/4
f 216/1 215/2 214/3 213/4
f 221/1 222/2 218/3 217/4
f 222/1 223/2 219/3 218/4
f 223/1 224/2 220/3 219/4
f 224/1 221/2 217/3 220/4
f 217/1 218/2 219/3 220/4
f 224/1 223/2 222/3 221/4
f 229/1 230/2 226/3 225/4
f 230/1 231/2 227/3 226/4
f 231/1 232/2 228/3 227/4
f 232/1 229/2 225/3 228/4
f 225/1 226/2 227/3 228/4
f 232/1 231/2 230/3 229/4
f 237/1 238/2 234/3 233/4
f 238/1 239/2 235/3 234/4
f 239/1 240/2 236/3 235/4
f 240/1 237/2 233/3 236/4
f 233/1 234/2 235/3 236/4
f 240/1 239/2 238/3 237/4
f 245/1 246/2 242/3 241/4
f 246/1 247/2 243/3 242/4
f 247/1 248/2 244/3 243/4
f 248/1 245/2 241/3 244/4
f 241/1 242/2 243/3 244/4
f 248/1 247/2 246/3 245/4
f 253/1 254/2 250/3 249/4
f 254/1 255/2 251/3 250/4
f 255/1 256/2 252/3 251/4
f 256/1 253/2 249/3 252/4
f 249/1 250/2 251/3 252/4
f 256/1 255/2 254/3 253/4
f 261/1 262/2 258/3 257/4
f 262/1 263/2 259/3 258/4
f 263/1 264/2 260/3 259/4
f 264/1 261/2 257/3 260/4
f 257/1 258/2 259/3 260/4
f 264/1 263/2 262/3 261/4
f 269/1 270/2 266/3 265/4
f 270/1 271/2 267/3 266/4
f 271/1 272/2 268/3 267/4
f 272/1 269/2 265/3 268/4
f 265/1 266/2 267/3 268/4
f 272/1 271/2 270/3 269/4
f 277/1 278/2 274/3 273/4
f 278/1 279/2 275/3 274/4
f 279/1 280/2 276/3 275/4
f 280/1 277/2 273/3 276/4
f 273/1 274/2 275/3 276/4
f 280/1 279/2 278/3 277/4
f 285/1 286/2 282/3 281/4
f 286/1 287/2 283/3 282/4
f 287/1 288/2 284/3 283/4
f 288/1 285/2 281/3 284/4
f 281/1 282/2 283/3 284/4
f 288/1 287/2 286/3 285/4
f 293/1 294/2 290/3 289/4
f 294/1 295/2 291/3 290/4
f 295/1 296/2 292/3 291/4
f 296/1 293/2 289/3 292/4
f 289/1 290/2 291/3 292/4
f 296/1 295/2 294/3 293/4
f 301/1 302/2 298/3 297/4
f 302/1 303/2 299/3 298/4
f 303/1 304/2 300/3 299/4
f 304/1 301/2 297/3 300/4
f 297/1 298/2 299/3 300/4
f 304/1 303/2 302/3 301/4
f 313/1 310/2 306/3 314/4
f 310/1 311/2 307/3 306/4
f 315/1 312/2 308/3 316/4
f 312/1 309/2 305/3 308/4
f 314/1 306/2 307/3 316/4
f 315/1 311/2 310/3 313/4
f 309/1 313/2 314/3 305/4
f 311/1 315/2 316/3 307/4
f 305/1 314/2 316/3 308/4
f 312/1 315/2 313/3 309/4
f 346/1 345/2 325/3 326/4
f 335/1 334/2 318/3 319/4
f 348/1 347/2 327/3 328/4
f 328/1 327/2 326/3 325/4
f 345/1 348/2 328/3 325/4
f 345/1 346/2 347/3 348/4
f 336/1 335/2 319/3 320/4
f 347/1 346/2 326/3 327/4
f 334/1 333/2 317/3 318/4
f 333/1 336/2 320/3 317/4
f 320/1 319/2 318/3 317/4
f 333/1 334/2 335/3 336/4
f 344/1 339/2 331/3 343/4
f 339/1 338/2 330/3 331/4
f 342/1 337/2 329/3 341/4
f 337/1 340/2 332/3 329/4
f 343/1 331/2 330/3 341/4
f 342/1 338/2 339/3 344/4
f 340/1 344/2 343/3 332/4
f 338/1 342/2 341/3 330/4
f 332/1 343/2 341/3 329/4
f 337/1 342/2 344/3 340/4
f 370/1 369/2 349/3 350/4
f 359/1 358/2 323/3 322/4
f 372/1 371/2 351/3 352/4
f 352/1 351/2 350/3 349/4
f 369/1 372/2 352/3 349/4
f 369/1 370/2 371/3 372/4
f 360/1 359/2 322/3 321/4
f 371/1 370/2 350/3 351/4
f 358/1 357/2 324/3 323/4
f 357/1 360/2 321/3 324/4
f 321/1 322/2 323/3 324/4
f 357/1 358/2 359/3 360/4
f 368/1 363/2 355/3 367/4
f 363/1 362/2 354/3 355/4
f 366/1 361/2 353/3 365/4
f 361/1 364/2 356/3 353/4
f 367/1 355/2 354/3 365/4
f 366/1 362/2 363/3 368/4
f 364/1 368/2 367/3 356/4
f 362/1 366/2 365/3 354/4
f 356/1 367/2 365/3 353/4
f 361/1 366/2 368/3 364/4
f 433/1 434/2 436/3 435/4
f 415/1 416/2 418/3 417/4
f 375/1 376/2 378/3 377/4
f 431/1 432/2 434/3 433/4
f 400/5 373/6 420/7 418/8 416/9 414/10 412/11 410/12 408/13 406/14 404/15 402/16
f 377/1 378/2 380/3 379/4
f 429/1 430/2 432/3 431/4
f 411/1 412/2 414/3 413/4
f 379/1 380/2 382/3 381/4
f 427/1 428/2 430/3 429/4
f 409/1 410/2 412/3 411/4
f 381/1 382/2 384/3 383/4
f 425/1 426/2 428/3 427/4
f 407/1 408/2 410/3 409/4
f 383/1 384/2 386/3 385/4
f 423/1 424/2 426/3 425/4
f 405/1 406/2 408/3 407/4
f 385/1 386/2 388/3 387/4
f 421/1 422/2 424/3 423/4
f 403/1 404/2 406/3 405/4
f 387/1 388/2 390/3 389/4
f 374/5 399/6 401/7 403/8 405/9 407/10 409/11 411/12 413/13 415/14 417/15 419/16
f 401/1 402/2 404/3 403/4
f 389/1 390/2 392/3 391/4
f 417/1 418/2 420/3 419/4
f 399/1 400/2 402/3 401/4
f 391/1 392/2 394/3 393/4
f 419/1 420/2 373/3 374/4
f 374/1 373/2 400/3 399/4
f 393/1 394/2 396/3 395/4
f 378/5 376/6 398/7 396/8 394/9 392/10 390/11 388/12 386/13 384/14 382/15 380/16
f 397/1 398/2 376/3 375/4
f 395/1 396/2 398/3 397/4
f 435/1 436/2 438/3 437/4
f 413/1 414/2 416/3 415/4
f 375/5 377/6 379/7 381/8 383/9 385/10 387/11 389/12 391/13 393/14 395/15 397/16
f 437/1 438/2 440/3 439/4
f 439/1 440/2 442/3 441/4
f 424/5 422/6 444/7 442/8 440/9 438/10 436/11 434/12 432/13 430/14 428/15 426/16
f 443/1 444/2 422/3 421/4
f 441/1 442/2 444/3 443/4
f 421/5 423/6 425/7 427/8 429/9 431/10 433/11 435/12 437/13 439/14 441/15 443/16
f 463/1 464/2 466/3 465/4
f 448/5 445/6 468/7 466/8 464/9 462/10 460/11 458/12 456/13 454/14 452/15 450/16
f 459/1 460/2 462/3 461/4
f 457/1 458/2 460/3 459/4
f 455/1 456/2 458/3 457/4
f 453/1 454/2 456/3 455/4
f 451/1 452/2 454/3 453/4
f 446/5 447/6 449/7 451/8 453/9 455/10 457/11 459/12 461/13 463/14 465/15 467/16
f 449/1 450/2 452/3 451/4
f 465/1 466/2 468/3 467/4
f 447/1 448/2 450/3 449/4
f 467/1 468/2 445/3 446/4
f 446/1 445/2 448/3 447/4
f 461/1 462/2 464/3 463/4
f 469/1 470/2 472/3 471/4
f 471/1 472/2 474/3 473/4
f 473/1 474/2 476/3 475/4
f 475/1 476/2 478/3 477/4
f 477/1 478/2 480/3 479/4
f 479/1 480/2 482/3 481/4
f 472/5 470/17 484/8 482/18 480/11 478/19 476/14 474/20
f 483/1 484/2 470/3 469/4
f 481/1 482/2 484/3 483/4
f 469/5 471/17 473/8 475/18 477/11 479/19 481/14 483/20
f 485/1 486/2 488/3 487/4
f 487/1 488/2 490/3 489/4
f 489/1 490/2 492/3 491/4
f 491/1 492/2 494/3 493/4
f 493/1 494/2 496/3 495/4
f 495/1 496/2 498/3 497/4
f 488/5 486/17 500/8 498/18 496/11 494/19 492/14 490/20
f 499/1 500/2 486/3 485/4
f 497/1 498/2 500/3 499/4
f 485/5 487/17 489/8 491/18 493/11 495/19 497/14 499/20
f 501/1 502/2 504/3 503/4
f 503/1 504/2 506/3 505/4
f 505/1 506/2 508/3 507/4
f 507/1 508/2 510/3 509/4
f 509/1 510/2 512/3 511/4
f 511/1 512/2 514/3 513/4
f 504/5 502/17 516/8 514/18 512/11 510/19 508/14 506/20
f 515/1 516/2 502/3 501/4
f 513/1 514/2 516/3 515/4
f 501/5 503/17 505/8 507/18 509/11 511/19 513/14 515/20
f 517/1 518/2 520/3 519/4
f 519/1 520/2 522/3 521/4
f 521/1 522/2 524/3 523/4
f 523/1 524/2 526/3 525/4
f 525/1 526/2 528/3 527/4
f 527/1 528/2 530/3 529/4
f 520/5 518/17 532/8 530/18 528/11 526/19 524/14 522/20
f 531/1 532/2 518/3 517/4
f 529/1 530/2 532/3 531/4
f 517/5 519/17 521/8 523/18 525/11 527/19 529/14 531/20
f 533/1 534/2 536/3 535/4
f 535/1 536/2 538/3 537/4
f 537/1 538/2 540/3 539/4
f 539/1 540/2 542/3 541/4
f 541/1 542/2 544/3 543/4
f 543/1 544/2 546/3 545/4
f 536/5 534/17 548/8 546/18 544/11 542/19 540/14 538/20
f 547/1 548/2 534/3 533/4
f 545/1 546/2 548/3 547/4
f 533/5 535/17 537/8 539/18 541/11 543/19 545/14 547/20
f 549/1 550/2 552/3 551/4
f 551/1 552/2 554/3 553/4
f 553/1 554/2 556/3 555/4
f 555/1 556/2 558/3 557/4
f 557/1 558/2 560/3 559/4
f 559/1 560/2 562/3 561/4
f 552/5 550/17 564/8 562/18 560/11 558/19 556/14 554/20
f 563/1 564/2 550/3 549/4
f 561/1 562/2 564/3 563/4
f 549/5 551/17 553/8 555/18 557/11 559/19 561/14 563/20
f 625/1 626/2 628/3 627/4
f 607/1 608/2 610/3 609/4
f 567/1 568/2 570/3 569/4
f 623/1 624/2 626/3 625/4
f 592/5 565/6 612/7 610/8 608/9 606/10 604/11 602/12 600/13 598/14 596/15 594/16
f 569/1 570/2 572/3 571/4
f 621/1 622/2 624/3 623/4
f 603/1 604/2 606/3 605/4
f 571/1 572/2 574/3 573/4
f 619/1 620/2 622/3 621/4
f 601/1 602/2 604/3 603/4
f 573/1 574/2 576/3 575/4
f 617/1 618/2 620/3 619/4
f 599/1 600/2 602/3 601/4
f 575/1 576/2 578/3 577/4
f 615/1 616/2 618/3 617/4
f 597/1 598/2 600/3 599/4
f 577/1 578/2 580/3 579/4
f 613/1 614/2 616/3 615/4
f 595/1 596/2 598/3 597/4
f 579/1 580/2 582/3 581/4
f 566/5 591/6 593/7 595/8 597/9 599/10 601/11 603/12 605/13 607/14 609/15 611/16
f 593/1 594/2 596/3 595/4
f 581/1 582/2 584/3 583/4
f 609/1 610/2 612/3 611/4
f 591/1 592/2 594/3 593/4
f 583/1 584/2 586/3 585/4
f 611/1 612/2 565/3 566/4
f 566/1 565/2 592/3 591/4
f 585/1 586/2 588/3 587/4
f 570/5 568/6 590/7 588/8 586/9 584/10 582/11 580/12 578/13 576/14 574/15 572/16
f 589/1 590/2 568/3 567/4
f 587/1 588/2 590/3 589/4
f 627/1 628/2 630/3 629/4
f 605/1 606/2 608/3 607/4
f 567/5 569/6 571/7 573/8 575/9 577/10 579/11 581/12 583/13 585/14 587/15 589/16
f 629/1 630/2 632/3 631/4
f 631/1 632/2 634/3 633/4
f 616/5 614/6 636/7 634/8 632/9 630/10 628/11 626/12 624/13 622/14 620/15 618/16
f 635/1 636/2 614/3 613/4
f 633/1 634/2 636/3 635/4
f 613/5 615/6 617/7 619/8 621/9 623/10 625/11 627/12 629/13 631/14 633/15 635/16
f 655/1 656/2 658/3 657/4
f 640/5 637/6 660/7 658/8 656/9 654/10 652/11 650/12 648/13 646/14 644/15 642/16
f 651/1 652/2 654/3 653/4
f 649/1 650/2 652/3 651/4
f 647/1 648/2 650/3 649/4
f 645/1 646/2 648/3 647/4
f 643/1 644/2 646/3 645/4
f 638/5 639/6 641/7 643/8 645/9 647/10 649/11 651/12 653/13 655/14 657/15 659/16
f 641/1 642/2 644/3 643/4
f 657/1 658/2 660/3 659/4
f 639/1 640/2 642/3 641/4
f 659/1 660/2 637/3 638/4
f 638/1 637/2 640/3 639/4
f 653/1 654/2 656/3 655/4
f 661/1 662/2 664/3 663/4
f 663/1 664/2 666/3 665/4
f 665/1 666/2 668/3 667/4
f 667/1 668/2 670/3 669/4
f 669/1 670/2 672/3 671/4
f 671/1 672/2 674/3 673/4
f 664/5 662/17 676/8 674/18 672/11 670/19 668/14 666/20
f 675/1 676/2 662/3 661/4
f 673/1 674/2 676/3 675/4
f 661/5 663/17 665/8 667/18 669/11 671/19 673/14 675/20
f 677/1 678/2 680/3 679/4
f 679/1 680/2 682/3 681/4
f 681/1 682/2 684/3 683/4
f 683/1 684/2 686/3 685/4
f 685/1 686/2 688/3 687/4
f 687/1 688/2 690/3 689/4
f 680/5 678/17 692/8 690/18 688/11 686/19 684/14 682/20
f 691/1 692/2 678/3 677/4
f 689/1 690/2 692/3 691/4
f 677/5 679/17 681/8 683/18 685/11 687/19 689/14 691/20
f 693/1 694/2 696/3 695/4
f 695/1 696/2 698/3 697/4
f 697/1 698/2 700/3 699/4
f 699/1 700/2 702/3 701/4
f 701/1 702/2 704/3 703/4
f 703/1 704/2 706/3 705/4
f 696/5 694/17 708/8 706/18 704/11 702/19 700/14 698/20
f 707/1 708/2 694/3 693/4
f 705/1 706/2 708/3 707/4
f 693/5 695/17 697/8 699/18 701/11 703/19 705/14 707/20
f 709/1 710/2 712/3 711/4
f 711/1 712/2 714/3 713/4
f 713/1 714/2 716/3 715/4
f 715/1 716/2 718/3 717/4
f 717/1 718/2 720/3 719/4
f 719/1 720/2 722/3 721/4
f 712/5 710/17 724/8 722/18 720/11 718/19 716/14 714/20
f 723/1 724/2 710/3 709/4
f 721/1 722/2 724/3 723/4
f 709/5 711/17 713/8 715/18 717/11 719/19 721/14 723/20
f 725/1 726/2 728/3 727/4
f 727/1 728/2 730/3 729/4
f 729/1 730/2 732/3 731/4
f 731/1 732/2 734/3 733/4
f 733/1 734/2 736/3 735/4
f 735/1 736/2 738/3 737/4
f 728/5 726/17 740/8 738/18 736/11 734/19 732/14 730/20
f 739/1 740/2 726/3 725/4
f 737/1 738/2 740/3 739/4
f 725/5 727/17 729/8 731/18 733/11 735/19 737/14 739/20
f 741/1 742/2 744/3 743/4
f 743/1 744/2 746/3 745/4
f 745/1 746/2 748/3 747/4
f 747/1 748/2 750/3 749/4
f 749/1 750/2 752/3 751/4
f 751/1 752/2 754/3 753/4
f 744/5 742/17 756/8 754/18 752/11 750/19 748/14 746/20
f 755/1 756/2 742/3 741/4
f 753/1 754/2 756/3 755/4
f 741/5 743/17 745/8 747/18 749/11 751/19 753/14 755/20
