# Blender v2.67 (sub 0) OBJ File: ''
# www.blender.org
mtllib Gateway.mtl
o Cylinder
v -0.801618 -0.986831 2.070049
v -0.801618 -0.160568 2.070049
v -0.691899 -0.986831 2.091873
v -0.691899 -0.160568 2.091873
v -0.598884 -0.986831 2.154024
v -0.598884 -0.160568 2.154024
v -0.536732 -0.986831 2.247040
v -0.536732 -0.160568 2.247040
v -0.514908 -0.986831 2.356759
v -0.514908 -0.160568 2.356759
v -0.536732 -0.986831 2.466479
v -0.536732 -0.160568 2.466479
v -0.598884 -0.986831 2.559494
v -0.598884 -0.160568 2.559494
v -0.691899 -0.986831 2.621645
v -0.691899 -0.160568 2.621645
v -0.801618 -0.986831 2.643470
v -0.801618 -0.160568 2.643470
v -0.911338 -0.986831 2.621645
v -0.911338 -0.160568 2.621645
v -1.004354 -0.986831 2.559494
v -1.004354 -0.160568 2.559494
v -1.066504 -0.986831 2.466479
v -1.066504 -0.160568 2.466479
v -1.088329 -0.986831 2.356759
v -1.088329 -0.160568 2.356759
v -1.066504 -0.986831 2.247040
v -1.066504 -0.160568 2.247040
v -1.004353 -0.986831 2.154024
v -1.004353 -0.160568 2.154024
v -0.911337 -0.986831 2.091873
v -0.911337 -0.160568 2.091873
v -0.801618 4.506246 2.070049
v -0.691899 4.506246 2.091873
v -0.598884 4.506246 2.154024
v -0.536732 4.506246 2.247040
v -0.514908 4.506246 2.356759
v -0.536732 4.506246 2.466479
v -0.598884 4.506246 2.559494
v -0.691899 4.506246 2.621645
v -0.801618 4.506246 2.643470
v -0.911338 4.506246 2.621645
v -1.004354 4.506246 2.559494
v -1.066504 4.506246 2.466479
v -1.088329 4.506246 2.356759
v -1.066504 4.506246 2.247040
v -1.004353 4.506246 2.154024
v -0.911337 4.506246 2.091873
v -0.801618 7.371054 2.070049
v -0.691899 7.371054 2.091873
v -0.598884 7.371054 2.154024
v -0.536732 7.371054 2.247040
v -0.514908 7.371054 2.356759
v -0.536732 7.371054 2.466479
v -0.598884 7.371054 2.559494
v -0.691899 7.371054 2.621645
v -0.801618 7.371054 2.643470
v -0.911338 7.371054 2.621645
v -1.004354 7.371054 2.559494
v -1.066504 7.371054 2.466479
v -1.088329 7.371054 2.356759
v -1.066504 7.371054 2.247040
v -1.004353 7.371054 2.154024
v -0.911337 7.371054 2.091873
v -0.801619 8.074723 2.080468
v -0.691899 8.080554 2.101500
v -0.598884 8.097157 2.161392
v -0.536733 8.122005 2.251027
v -0.514908 8.151317 2.356759
v -0.536733 8.180627 2.462491
v -0.598884 8.205476 2.552126
v -0.691899 8.222078 2.612018
v -0.801619 8.227909 2.633049
v -0.911338 8.222078 2.612018
v -1.004354 8.205476 2.552126
v -1.066504 8.180627 2.462491
v -1.088329 8.151317 2.356759
v -1.066504 8.122005 2.251027
v -1.004353 8.097157 2.161392
v -0.911338 8.080554 2.101499
v -0.801619 8.317003 2.035508
v -0.691899 8.330371 2.052760
v -0.598884 8.368438 2.101888
v -0.536733 8.425409 2.175415
v -0.514908 8.492613 2.262145
v -0.536733 8.559814 2.348876
v -0.598884 8.616787 2.422402
v -0.691899 8.654854 2.471531
v -0.801619 8.668221 2.488783
v -0.911338 8.654854 2.471531
v -1.004354 8.616787 2.422402
v -1.066504 8.559814 2.348876
v -1.088329 8.492613 2.262145
v -1.066504 8.425409 2.175415
v -1.004353 8.368438 2.101888
v -0.911338 8.330371 2.052760
v -0.801618 8.626082 1.809783
v -0.691899 8.643650 1.822733
v -0.598883 8.693679 1.859610
v -0.536732 8.768552 1.914800
v -0.514908 8.856871 1.979901
v -0.536732 8.945189 2.045003
v -0.598883 9.020062 2.100193
v -0.691899 9.070090 2.137070
v -0.801618 9.087658 2.150019
v -0.911338 9.070090 2.137070
v -1.004354 9.020062 2.100193
v -1.066504 8.945189 2.045003
v -1.088329 8.856871 1.979901
v -1.066504 8.768552 1.914800
v -1.004353 8.693679 1.859610
v -0.911337 8.643650 1.822733
v -0.801618 8.871324 1.492404
v -0.691899 8.891569 1.500554
v -0.598883 8.949224 1.523763
v -0.536732 9.035510 1.558498
v -0.514908 9.137293 1.599471
v -0.536732 9.239075 1.640444
v -0.598883 9.325362 1.675179
v -0.691899 9.383017 1.698389
v -0.801618 9.403262 1.706538
v -0.911338 9.383017 1.698389
v -1.004354 9.325362 1.675179
v -1.066504 9.239075 1.640444
v -1.088329 9.137293 1.599471
v -1.066504 9.035510 1.558498
v -1.004353 8.949224 1.523763
v -0.911337 8.891569 1.500554
v -0.801618 8.932601 1.222804
v -0.691899 8.954420 1.222319
v -0.598883 9.016555 1.220937
v -0.536732 9.109549 1.218870
v -0.514907 9.219241 1.216430
v -0.536732 9.328934 1.213992
v -0.598883 9.421926 1.211923
v -0.691899 9.484062 1.210542
v -0.801618 9.505880 1.210057
v -0.911338 9.484062 1.210542
v -1.004353 9.421926 1.211923
v -1.066504 9.328934 1.213992
v -1.088328 9.219241 1.216430
v -1.066504 9.109549 1.218870
v -1.004353 9.016555 1.220937
v -0.911337 8.954420 1.222319
v -0.801617 8.926882 -4.205473
v -0.691898 8.948707 -4.205705
v -0.598883 9.010853 -4.206364
v -0.536731 9.103864 -4.207351
v -0.514907 9.213577 -4.208516
v -0.536731 9.323291 -4.209681
v -0.598883 9.416302 -4.210668
v -0.691898 9.478449 -4.211327
v -0.801617 9.500272 -4.211558
v -0.911337 9.478449 -4.211327
v -1.004353 9.416302 -4.210668
v -1.066503 9.323291 -4.209681
v -1.088328 9.213577 -4.208516
v -1.066503 9.103864 -4.207351
v -1.004352 9.010853 -4.206364
v -0.911337 8.948707 -4.205705
v -0.801617 8.931156 -4.405960
v -0.691898 8.952444 -4.410772
v -0.598883 9.013065 -4.424477
v -0.536731 9.103791 -4.444987
v -0.514907 9.210811 -4.469180
v -0.536731 9.317830 -4.493373
v -0.598883 9.408556 -4.513884
v -0.691898 9.469177 -4.527588
v -0.801617 9.490464 -4.532400
v -0.911337 9.469177 -4.527588
v -1.004353 9.408556 -4.513884
v -1.066503 9.317830 -4.493373
v -1.088328 9.210811 -4.469180
v -1.066503 9.103791 -4.444987
v -1.004352 9.013065 -4.424477
v -0.911337 8.952444 -4.410773
v -0.801617 8.890528 -4.691395
v -0.691898 8.908184 -4.704225
v -0.598882 8.958464 -4.740757
v -0.536731 9.033712 -4.795434
v -0.514907 9.122476 -4.859929
v -0.536731 9.211239 -4.924424
v -0.598882 9.286488 -4.979101
v -0.691898 9.336767 -5.015634
v -0.801617 9.354423 -5.028462
v -0.911337 9.336767 -5.015634
v -1.004353 9.286488 -4.979101
v -1.066503 9.211239 -4.924424
v -1.088328 9.122476 -4.859929
v -1.066503 9.033712 -4.795434
v -1.004352 8.958464 -4.740757
v -0.911336 8.908183 -4.704225
v -0.801617 8.668294 -5.011660
v -0.691898 8.682333 -5.028370
v -0.598882 8.722313 -5.075954
v -0.536731 8.782148 -5.147170
v -0.514907 8.852729 -5.231174
v -0.536731 8.923309 -5.315180
v -0.598882 8.983144 -5.386396
v -0.691898 9.023125 -5.433980
v -0.801617 9.037164 -5.450689
v -0.911337 9.023125 -5.433980
v -1.004353 8.983144 -5.386396
v -1.066503 8.923309 -5.315180
v -1.088328 8.852729 -5.231174
v -1.066503 8.782148 -5.147170
v -1.004352 8.722313 -5.075954
v -0.911336 8.682332 -5.028369
v -0.801618 8.403181 -5.245726
v -0.691898 8.412719 -5.265357
v -0.598883 8.439878 -5.321258
v -0.536732 8.480528 -5.404922
v -0.514907 8.528476 -5.503611
v -0.536732 8.576425 -5.602299
v -0.598883 8.617073 -5.685963
v -0.691898 8.644234 -5.741864
v -0.801618 8.653771 -5.761494
v -0.911337 8.644234 -5.741864
v -1.004353 8.617073 -5.685963
v -1.066503 8.576425 -5.602299
v -1.088328 8.528476 -5.503611
v -1.066503 8.480528 -5.404922
v -1.004352 8.439878 -5.321258
v -0.911337 8.412717 -5.265356
v -0.801618 8.215756 -5.355017
v -0.691898 8.218204 -5.376705
v -0.598883 8.225179 -5.438463
v -0.536732 8.235617 -5.530890
v -0.514907 8.247928 -5.639917
v -0.536732 8.260241 -5.748944
v -0.598883 8.270677 -5.841373
v -0.691898 8.277652 -5.903131
v -0.801618 8.280101 -5.924817
v -0.911337 8.277652 -5.903131
v -1.004353 8.270677 -5.841373
v -1.066503 8.260241 -5.748944
v -1.088328 8.247928 -5.639917
v -1.066503 8.235617 -5.530890
v -1.004352 8.225179 -5.438463
v -0.911337 8.218204 -5.376704
v -0.801618 8.038489 -5.377621
v -0.691898 8.038018 -5.399442
v -0.598883 8.036679 -5.461577
v -0.536732 8.034677 -5.554571
v -0.514907 8.032312 -5.664267
v -0.536732 8.029950 -5.773961
v -0.598883 8.027945 -5.866955
v -0.691898 8.026607 -5.929091
v -0.801618 8.026137 -5.950910
v -0.911337 8.026607 -5.929091
v -1.004353 8.027945 -5.866955
v -1.066503 8.029950 -5.773961
v -1.088328 8.032312 -5.664267
v -1.066503 8.034677 -5.554571
v -1.004352 8.036679 -5.461577
v -0.911337 8.038018 -5.399441
v -0.801621 -0.981777 -5.367749
v -0.691901 -0.981721 -5.389574
v -0.598886 -0.981563 -5.451725
v -0.536735 -0.981326 -5.544740
v -0.514910 -0.981047 -5.654459
v -0.536735 -0.980767 -5.764179
v -0.598886 -0.980531 -5.857194
v -0.691901 -0.980372 -5.919346
v -0.801621 -0.980316 -5.941169
v -0.911340 -0.980372 -5.919346
v -1.004356 -0.980531 -5.857194
v -1.066507 -0.980767 -5.764179
v -1.088331 -0.981047 -5.654459
v -1.066507 -0.981326 -5.544740
v -1.004355 -0.981563 -5.451725
v -0.911340 -0.981722 -5.389573
v -0.801618 -0.986831 2.070049
v -0.801618 -0.160568 2.070049
v -0.691899 -0.986831 2.091873
v -0.691899 -0.160568 2.091873
v -0.801618 4.506246 2.070049
v -0.691899 4.506246 2.091873
usemtl None
s off
f 3 4 6 5
f 5 6 8 7
f 7 8 10 9
f 9 10 12 11
f 11 12 14 13
f 13 14 16 15
f 15 16 18 17
f 17 18 20 19
f 19 20 22 21
f 21 22 24 23
f 23 24 26 25
f 25 26 28 27
f 27 28 30 29
f 18 16 40 41
f 31 32 2 1
f 29 30 32 31
f 1 3 5 7 9 11 13 15 17 19 21 23 25 27 29 31
f 46 45 61 62
f 14 12 38 39
f 10 8 36 37
f 6 4 34 35
f 32 30 47 48
f 28 26 45 46
f 4 3 275 276
f 24 22 43 44
f 20 18 41 42
f 16 14 39 40
f 12 10 37 38
f 8 6 35 36
f 2 32 48 33
f 30 28 46 47
f 26 24 44 45
f 22 20 42 43
f 61 60 76 77
f 40 39 55 56
f 3 1 273 275
f 47 46 62 63
f 41 40 56 57
f 35 34 50 51
f 48 47 63 64
f 42 41 57 58
f 36 35 51 52
f 33 48 64 49
f 43 42 58 59
f 37 36 52 53
f 44 43 59 60
f 38 37 53 54
f 45 44 60 61
f 39 38 54 55
f 76 75 91 92
f 55 54 70 71
f 62 61 77 78
f 56 55 71 72
f 63 62 78 79
f 57 56 72 73
f 51 50 66 67
f 64 63 79 80
f 58 57 73 74
f 52 51 67 68
f 49 64 80 65
f 59 58 74 75
f 53 52 68 69
f 60 59 75 76
f 54 53 69 70
f 81 96 112 97
f 70 69 85 86
f 77 76 92 93
f 71 70 86 87
f 78 77 93 94
f 72 71 87 88
f 79 78 94 95
f 73 72 88 89
f 67 66 82 83
f 80 79 95 96
f 74 73 89 90
f 68 67 83 84
f 65 80 96 81
f 75 74 90 91
f 69 68 84 85
f 112 111 127 128
f 91 90 106 107
f 85 84 100 101
f 92 91 107 108
f 86 85 101 102
f 93 92 108 109
f 87 86 102 103
f 94 93 109 110
f 88 87 103 104
f 95 94 110 111
f 89 88 104 105
f 83 82 98 99
f 96 95 111 112
f 90 89 105 106
f 84 83 99 100
f 106 105 121 122
f 100 99 115 116
f 97 112 128 113
f 107 106 122 123
f 101 100 116 117
f 108 107 123 124
f 102 101 117 118
f 109 108 124 125
f 103 102 118 119
f 110 109 125 126
f 104 103 119 120
f 111 110 126 127
f 105 104 120 121
f 99 98 114 115
f 135 134 150 151
f 127 126 142 143
f 121 120 136 137
f 115 114 130 131
f 128 127 143 144
f 122 121 137 138
f 116 115 131 132
f 113 128 144 129
f 123 122 138 139
f 117 116 132 133
f 124 123 139 140
f 118 117 133 134
f 125 124 140 141
f 119 118 134 135
f 126 125 141 142
f 120 119 135 136
f 156 155 171 172
f 142 141 157 158
f 136 135 151 152
f 143 142 158 159
f 137 136 152 153
f 131 130 146 147
f 144 143 159 160
f 138 137 153 154
f 132 131 147 148
f 129 144 160 145
f 139 138 154 155
f 133 132 148 149
f 140 139 155 156
f 134 133 149 150
f 141 140 156 157
f 161 176 192 177
f 150 149 165 166
f 157 156 172 173
f 151 150 166 167
f 158 157 173 174
f 152 151 167 168
f 159 158 174 175
f 153 152 168 169
f 147 146 162 163
f 160 159 175 176
f 154 153 169 170
f 148 147 163 164
f 145 160 176 161
f 155 154 170 171
f 149 148 164 165
f 192 191 207 208
f 171 170 186 187
f 165 164 180 181
f 172 171 187 188
f 166 165 181 182
f 173 172 188 189
f 167 166 182 183
f 174 173 189 190
f 168 167 183 184
f 175 174 190 191
f 169 168 184 185
f 163 162 178 179
f 176 175 191 192
f 170 169 185 186
f 164 163 179 180
f 207 206 222 223
f 186 185 201 202
f 180 179 195 196
f 177 192 208 193
f 187 186 202 203
f 181 180 196 197
f 188 187 203 204
f 182 181 197 198
f 189 188 204 205
f 183 182 198 199
f 190 189 205 206
f 184 183 199 200
f 191 190 206 207
f 185 184 200 201
f 179 178 194 195
f 222 221 237 238
f 201 200 216 217
f 195 194 210 211
f 208 207 223 224
f 202 201 217 218
f 196 195 211 212
f 193 208 224 209
f 203 202 218 219
f 197 196 212 213
f 204 203 219 220
f 198 197 213 214
f 205 204 220 221
f 199 198 214 215
f 206 205 221 222
f 200 199 215 216
f 237 236 252 253
f 216 215 231 232
f 223 222 238 239
f 217 216 232 233
f 211 210 226 227
f 224 223 239 240
f 218 217 233 234
f 212 211 227 228
f 209 224 240 225
f 219 218 234 235
f 213 212 228 229
f 220 219 235 236
f 214 213 229 230
f 221 220 236 237
f 215 214 230 231
f 245 244 260 261
f 231 230 246 247
f 238 237 253 254
f 232 231 247 248
f 239 238 254 255
f 233 232 248 249
f 227 226 242 243
f 240 239 255 256
f 234 233 249 250
f 228 227 243 244
f 225 240 256 241
f 235 234 250 251
f 229 228 244 245
f 236 235 251 252
f 230 229 245 246
f 258 257 272 271 270 269 268 267 266 265 264 263 262 261 260 259
f 252 251 267 268
f 246 245 261 262
f 253 252 268 269
f 247 246 262 263
f 254 253 269 270
f 248 247 263 264
f 255 254 270 271
f 249 248 264 265
f 243 242 258 259
f 256 255 271 272
f 250 249 265 266
f 244 243 259 260
f 241 256 272 257
f 251 250 266 267
f 226 225 241 242
f 210 209 225 226
f 194 193 209 210
f 34 4 276 278
f 1 2 274 273
f 50 278 277 49
f 2 33 277 274
f 193 194 178 177
f 177 178 162 161
f 146 145 161 162
f 130 129 145 146
f 114 113 129 130
f 113 114 98 97
f 97 98 82 81
f 66 65 81 82
f 66 50 49 65
f 33 49 277
f 276 274 277 278
f 273 274 276 275
f 258 242 241 257
f 50 34 278
